<svg width="170" height="116" viewBox="0 0 170 116" fill="none" xmlns="http://www.w3.org/2000/svg">
<path d="M148.75 0C137.615 0 128.605 9.76334 127.67 22.2333C111.69 17.4 103.53 4.83333 85 4.83333C66.385 4.83333 58.31 17.4 42.33 22.2333C41.395 9.86 32.385 0 21.25 0C15.6141 0 10.2091 2.54612 6.22398 7.07825C2.23883 11.6104 0 17.7573 0 24.1667V29C0 87 30.6 104.497 55.42 106.14C64.005 112.327 74.12 116 85 116C95.88 116 105.995 112.327 114.58 106.14C139.4 104.497 170 87 170 29V24.1667C170 17.7573 167.761 11.6104 163.776 7.07825C159.791 2.54612 154.386 0 148.75 0ZM12.75 29V24.1667C12.75 18.85 16.575 14.5 21.25 14.5C25.925 14.5 29.75 18.85 29.75 24.1667V53.1667C29.75 65.54 32.98 77.0433 38.335 86.8067C25.415 79.9433 12.75 64.2833 12.75 29ZM42.5 53.1667V37.2167C52.02 34.9933 59.075 30.5467 65.11 26.7767C72.08 22.5233 77.095 19.3333 85 19.3333C92.905 19.3333 97.92 22.5233 104.89 26.8733C110.925 30.6433 117.98 34.9933 127.5 37.3133V53.2633C127.5 79.9433 108.46 101.597 85 101.597C61.54 101.597 42.5 79.8467 42.5 53.1667ZM157.25 29C157.25 64.2833 144.585 79.9433 131.665 86.8067C137.105 77.0433 140.25 65.54 140.25 53.1667V24.1667C140.25 18.85 144.075 14.5 148.75 14.5C153.425 14.5 157.25 18.85 157.25 24.1667V29ZM73.865 43.3067C70.125 45.82 65.705 48.72 59.5 50.6533V40.6C63.58 38.9567 66.64 36.9267 69.53 34.9933C74.12 31.9 78.455 29 85 29C91.545 29 95.795 31.9 100.3 34.9933C103.19 36.9267 106.335 39.0533 110.5 40.6967V50.75C104.125 48.72 99.79 45.82 95.965 43.21C92.055 40.6 89.165 38.6667 85 38.6667C80.835 38.6667 77.86 40.6 73.865 43.3067Z" fill="black"/>
</svg>
